{ 
  "Main sentence": "It's horrible when...",
  "WorldP": [
    "you miss the bus",
    "you forgot to charge your phone",
    "your car is frozen inside",
    "it's raining outside",
    "you've got school at 8",
    "you get the phone you wanted in the wrong color",
    "there is nothing to eat in the fridge",
    "your coffee is cold",
    "McDonalds' ice cream machine is broken",
    "they run out of oatmilk",
    "you have a runny nose",
    "you don’t have WIFI",
    "people skip in line",
    "you run out of milk and have already poured the cereal",
    "you have a bad hair day",
    "your card is declined",
    "you're sitting close to a screaming child on an airplane",
    "you meet facers on the street",
    "people are late",
    "you have to pay for public toilets",
    "you can’t find the right dress for the event you are going to"
    ],
  "Second main sentence": "But at least you...",
  "Ukraine": [
    "do not need to flee from your country",
    "are not starving",
    "do not have to split from your family",
    "are not bombed",
    "still have a home",
    "don’t fear for your life",
    "do not have to listen for the civil defense sirens",
    "don’t have to leave your pets behind",
    "live in a country that is not invaded",
    "can buy food in the supermarket",
    "can go outside without fear",
    "can get in contact with your loved ones",
    "don’t have to fight for your freedom",
    "can go to sleep safely",
    "can play with your dog outside",
    "can sing karaoke with your friends",
    "dont have to fear for your life"
    ]
}
